group13_lab5_part4/cpu_wavedata.vcd
$date
	Wed May 15 14:17:08 2024
$end
$version
	Icarus Verilog
$end
$timescale
	1s
$end
$scope module cpu_tb $end
$scope module mycpu $end
$scope module cpu_reg_file $end
$var reg 8 ! \regArray[0] [7:0] $end
$upscope $end
$upscope $end
$upscope $end
$scope module cpu_tb $end
$scope module mycpu $end
$scope module cpu_reg_file $end
$var reg 8 " \regArray[1] [7:0] $end
$upscope $end
$upscope $end
$upscope $end
$scope module cpu_tb $end
$scope module mycpu $end
$scope module cpu_reg_file $end
$var reg 8 # \regArray[2] [7:0] $end
$upscope $end
$upscope $end
$upscope $end
$scope module cpu_tb $end
$scope module mycpu $end
$scope module cpu_reg_file $end
$var reg 8 $ \regArray[3] [7:0] $end
$upscope $end
$upscope $end
$upscope $end
$scope module cpu_tb $end
$scope module mycpu $end
$scope module cpu_reg_file $end
$var reg 8 % \regArray[4] [7:0] $end
$upscope $end
$upscope $end
$upscope $end
$scope module cpu_tb $end
$scope module mycpu $end
$scope module cpu_reg_file $end
$var reg 8 & \regArray[5] [7:0] $end
$upscope $end
$upscope $end
$upscope $end
$scope module cpu_tb $end
$scope module mycpu $end
$scope module cpu_reg_file $end
$var reg 8 ' \regArray[6] [7:0] $end
$upscope $end
$upscope $end
$upscope $end
$scope module cpu_tb $end
$scope module mycpu $end
$scope module cpu_reg_file $end
$var reg 8 ( \regArray[7] [7:0] $end
$upscope $end
$upscope $end
$upscope $end
$scope module cpu_tb $end
$var wire 32 ) PC [31:0] $end
$var wire 32 * INSTRUCTION [31:0] $end
$var reg 1 + CLK $end
$var reg 1 , RESET $end
$var integer 32 - n [31:0] $end
$scope module mycpu $end
$var wire 1 + CLK $end
$var wire 32 . INSTRUCTION [31:0] $end
$var wire 1 , RESET $end
$var wire 1 / isBEQ $end
$var wire 1 0 isJ_OR_BEQ $end
$var wire 1 1 ZERO $end
$var wire 3 2 WRITEREG [2:0] $end
$var wire 8 3 TWOSOUT [7:0] $end
$var wire 32 4 S_EXTENDED_OFFSET [31:0] $end
$var wire 32 5 SE_OFFSET_SHIFTED [31:0] $end
$var wire 8 6 REGOUT2 [7:0] $end
$var wire 3 7 READREG2 [2:0] $end
$var wire 3 8 READREG1 [2:0] $end
$var wire 32 9 PCUPDATED [31:0] $end
$var wire 32 : PCADDED_J_BEQ [31:0] $end
$var wire 32 ; PCADDED [31:0] $end
$var wire 8 < OFFSET [7:0] $end
$var wire 8 = NEGMUXOUT [7:0] $end
$var wire 8 > IMMEDIATE [7:0] $end
$var wire 8 ? DATA2 [7:0] $end
$var wire 8 @ DATA1 [7:0] $end
$var wire 8 A ALURESULT [7:0] $end
$var reg 3 B ALUOP [2:0] $end
$var reg 1 C BEQSELECT $end
$var reg 1 D IMSELECT $end
$var reg 1 E JUMPSELECT $end
$var reg 1 F NEGSELECT $end
$var reg 8 G OPCODE [7:0] $end
$var reg 32 H PC [31:0] $end
$var reg 1 I WRITEENABLE $end
$scope module cpu_alu $end
$var wire 3 J Select [2:0] $end
$var wire 8 K orWire [7:0] $end
$var wire 8 L forwardWire [7:0] $end
$var wire 8 M andWire [7:0] $end
$var wire 8 N addWire [7:0] $end
$var wire 8 O Data2 [7:0] $end
$var wire 8 P Data1 [7:0] $end
$var reg 8 Q Result [7:0] $end
$var reg 1 1 Zero $end
$scope module addUnit $end
$var wire 8 R Result [7:0] $end
$var wire 8 S Data2 [7:0] $end
$var wire 8 T Data1 [7:0] $end
$upscope $end
$scope module andUnit $end
$var wire 8 U Result [7:0] $end
$var wire 8 V Data2 [7:0] $end
$var wire 8 W Data1 [7:0] $end
$upscope $end
$scope module forwardUnit $end
$var wire 8 X Result [7:0] $end
$var wire 8 Y Data2 [7:0] $end
$upscope $end
$scope module orUnit $end
$var wire 8 Z Result [7:0] $end
$var wire 8 [ Data2 [7:0] $end
$var wire 8 \ Data1 [7:0] $end
$upscope $end
$upscope $end
$scope module cpu_im_mux $end
$var wire 8 ] IN2 [7:0] $end
$var wire 1 D SELECT $end
$var wire 8 ^ IN1 [7:0] $end
$var reg 8 _ OUT [7:0] $end
$upscope $end
$scope module cpu_mux32 $end
$var wire 1 0 SELECT $end
$var wire 32 ` IN2 [31:0] $end
$var wire 32 a IN1 [31:0] $end
$var reg 32 b OUT [31:0] $end
$upscope $end
$scope module cpu_neg_mux $end
$var wire 1 F SELECT $end
$var wire 8 c IN2 [7:0] $end
$var wire 8 d IN1 [7:0] $end
$var reg 8 e OUT [7:0] $end
$upscope $end
$scope module cpu_pc_add $end
$var wire 32 f PC [31:0] $end
$var reg 32 g PCADDED [31:0] $end
$upscope $end
$scope module cpu_pc_add_j_beq $end
$var wire 32 h INSTRUCTION [31:0] $end
$var wire 32 i PC [31:0] $end
$var wire 32 j OFFSET [31:0] $end
$var reg 32 k PCADDED [31:0] $end
$upscope $end
$scope module cpu_reg_file $end
$var wire 1 + CLK $end
$var wire 8 l IN [7:0] $end
$var wire 3 m INADDRESS [2:0] $end
$var wire 3 n OUT1ADDRESS [2:0] $end
$var wire 3 o OUT2ADDRESS [2:0] $end
$var wire 8 p REGOUT1 [7:0] $end
$var wire 8 q REGOUT2 [7:0] $end
$var wire 1 , RESET $end
$var wire 1 I WRITE $end
$var integer 32 r i [31:0] $end
$upscope $end
$scope module cpu_shift $end
$var wire 32 s OFFSET [31:0] $end
$var reg 32 t SHIFTED_OFFSET [31:0] $end
$upscope $end
$scope module cpu_sign_extend $end
$var wire 8 u IN [7:0] $end
$var reg 32 v OUT [31:0] $end
$upscope $end
$scope module cpu_tc $end
$var wire 8 w IN [7:0] $end
$var wire 8 x OUT [7:0] $end
$upscope $end
$upscope $end
$upscope $end
$enddefinitions $end
#0
$dumpvars
bx x
bx w
bx v
bx u
bx t
bx s
b1000 r
bx q
bx p
bx o
bx n
bx m
bx l
bx k
bx j
bx i
bx h
bx g
bx f
bx e
bx d
bx c
bx b
bx a
bx `
bx _
bx ^
bx ]
bx \
bx [
bx Z
bx Y
bx X
bx W
bx V
bx U
bx T
bx S
bx R
bx Q
bx P
bx O
bx N
bx M
bx L
bx K
bx J
xI
bx H
bx G
xF
xE
xD
xC
bx B
bx A
bx @
bx ?
bx >
bx =
bx <
bx ;
bx :
bx 9
bx 8
bx 7
bx 6
bx 5
bx 4
bx 3
bx 2
x1
x0
x/
bx .
b1000 -
1,
0+
bx *
bx )
bx (
bx '
bx &
bx %
bx $
bx #
bx "
bx !
$end
#4
1+
#5
b0 (
b0 '
b0 &
b0 %
b0 $
b0 #
b0 "
b0 !
b1000 r
b0 )
b0 H
b0 f
0,
#6
b100 9
b100 b
b100 ;
b100 a
b100 g
b100 i
#7
b10000 5
b10000 j
b10000 t
b100 2
b100 m
b100 4
b100 s
b100 v
b0 8
b0 n
b10 7
b10 o
b1010 ?
b1010 O
b1010 S
b1010 V
b1010 Y
b1010 [
b1010 _
b100 <
b100 u
b1010 >
b1010 ]
b0 G
b1000000000000001010 *
b1000000000000001010 .
b1000000000000001010 h
#8
00
0/
b1010 A
b1010 Q
b1010 l
bx1x1x K
bx1x1x Z
b0x0x0 M
b0x0x0 U
b1010 L
b1010 X
0C
0E
1I
0F
1D
b0 B
b0 J
0+
#9
b0 @
b0 P
b0 T
b0 W
b0 \
b0 p
b0 =
b0 ^
b0 e
b0 6
b0 d
b0 q
b0 w
b10100 :
b10100 `
b10100 k
#10
b1010 K
b1010 Z
b0 M
b0 U
b0 3
b0 c
b0 x
#11
01
b1010 N
b1010 R
#12
1+
#13
b1010 %
b100 )
b100 H
b100 f
#14
b1000 9
b1000 b
b1000 ;
b1000 a
b1000 g
b1000 i
#15
b10100 5
b10100 j
b10100 t
b101 2
b101 m
b101 4
b101 s
b101 v
b1 7
b1 o
b101 <
b101 u
b1 ?
b1 O
b1 S
b1 V
b1 Y
b1 [
b1 _
b1 >
b1 ]
b1010000000000000001 *
b1010000000000000001 .
b1010000000000000001 h
#16
b1 A
b1 Q
b1 l
b1 K
b1 Z
b1 L
b1 X
0+
#17
b1 N
b1 R
b11100 :
b11100 `
b11100 k
#20
1+
#21
b1 &
b1000 )
b1000 H
b1000 f
#22
b1100 9
b1100 b
b1100 ;
b1100 a
b1100 g
b1100 i
#23
b11000 5
b11000 j
b11000 t
b110 2
b110 m
b110 4
b110 s
b110 v
b110 <
b110 u
b1100000000000000001 *
b1100000000000000001 .
b1100000000000000001 h
#24
0+
#25
b100100 :
b100100 `
b100100 k
#28
1+
#29
b1 '
b1100 )
b1100 H
b1100 f
#30
b10000 9
b10000 b
b10000 ;
b10000 a
b10000 g
b10000 i
#31
b11100 5
b11100 j
b11100 t
b111 2
b111 m
b111 4
b111 s
b111 v
b111 <
b111 u
b1001 ?
b1001 O
b1001 S
b1001 V
b1001 Y
b1001 [
b1001 _
b1001 >
b1001 ]
b1110000000000001001 *
b1110000000000001001 .
b1110000000000001001 h
#32
b1001 A
b1001 Q
b1001 l
b1001 K
b1001 Z
b1001 L
b1001 X
0+
#33
b1001 N
b1001 R
b101100 :
b101100 `
b101100 k
#36
1+
#37
b1001 (
b10000 )
b10000 H
b10000 f
#38
b10100 9
b10100 b
b10100 ;
b10100 a
b10100 g
b10100 i
#39
b10000 5
b10000 j
b10000 t
b100 2
b100 m
b100 4
b100 s
b100 v
b100 8
b100 n
b101 7
b101 o
b100 <
b100 u
b101 ?
b101 O
b101 S
b101 V
b101 Y
b101 [
b101 _
b101 >
b101 ]
b11 G
b11000001000000010000000101 *
b11000001000000010000000101 .
b11000001000000010000000101 h
#40
b0 ?
b0 O
b0 S
b0 V
b0 Y
b0 [
b0 _
b101 K
b101 Z
b101 L
b101 X
1F
0D
b1 B
b1 J
0+
#41
b0 K
b0 Z
b0 L
b0 X
b1010 @
b1010 P
b1010 T
b1010 W
b1010 \
b1010 p
b1 6
b1 d
b1 q
b1 w
b100100 :
b100100 `
b100100 k
#42
b1010 K
b1010 Z
b11111111 ?
b11111111 O
b11111111 S
b11111111 V
b11111111 Y
b11111111 [
b11111111 _
b11111111 =
b11111111 ^
b11111111 e
b11111111 3
b11111111 c
b11111111 x
#43
b11111111 K
b11111111 Z
b1010 M
b1010 U
b11111111 L
b11111111 X
#44
1+
#45
b1001 %
b10100 )
b10100 H
b10100 f
#46
b11000 9
b11000 b
b11000 ;
b11000 a
b11000 g
b11000 i
#47
b100 5
b100 j
b100 t
b1 2
b1 m
b1 4
b1 s
b1 v
b110 8
b110 n
b100 7
b100 o
b1 <
b1 u
b100 >
b100 ]
b111 G
b1001 @
b1001 P
b1001 T
b1001 W
b1001 \
b1001 p
b111000000010000011000000100 *
b111000000010000011000000100 .
b111000000010000011000000100 h
#48
b1001 M
b1001 U
1C
0I
0+
#49
b1000 A
b1000 Q
b1000 l
b1 @
b1 P
b1 T
b1 W
b1 \
b1 p
b1001 6
b1001 d
b1001 q
b1001 w
b11100 :
b11100 `
b11100 k
b1000 N
b1000 R
#50
b1 M
b1 U
b11110111 ?
b11110111 O
b11110111 S
b11110111 V
b11110111 Y
b11110111 [
b11110111 _
b11110111 =
b11110111 ^
b11110111 e
b11110111 3
b11110111 c
b11110111 x
#51
b11110111 K
b11110111 Z
b11110111 L
b11110111 X
#52
b11111000 A
b11111000 Q
b11111000 l
b11111000 N
b11111000 R
1+
#53
b11000 )
b11000 H
b11000 f
#54
b11100 9
b11100 b
b11100 ;
b11100 a
b11100 g
b11100 i
#55
b11111111111111111111111111110100 5
b11111111111111111111111111110100 j
b11111111111111111111111111110100 t
b101 2
b101 m
b11111111111111111111111111111101 4
b11111111111111111111111111111101 s
b11111111111111111111111111111101 v
b0 8
b0 n
b0 7
b0 o
b11111101 <
b11111101 u
b0 >
b0 ]
b110 G
b110111111010000000000000000 *
b110111111010000000000000000 .
b110111111010000000000000000 h
#56
10
b1001 ?
b1001 O
b1001 S
b1001 V
b1001 Y
b1001 [
b1001 _
b1001 =
b1001 ^
b1001 e
0C
1E
0F
0+
#57
b10000 9
b10000 b
b1001 K
b1001 Z
b1001 L
b1001 X
b0 @
b0 P
b0 T
b0 W
b0 \
b0 p
b0 ?
b0 O
b0 S
b0 V
b0 Y
b0 [
b0 _
b0 =
b0 ^
b0 e
b0 6
b0 d
b0 q
b0 w
b10000 :
b10000 `
b10000 k
#58
b0 3
b0 c
b0 x
b0 K
b0 Z
b0 M
b0 U
b0 L
b0 X
#59
b0 A
b0 Q
b0 l
11
b0 N
b0 R
#60
1+
#61
b10000 )
b10000 H
b10000 f
#62
b10100 ;
b10100 a
b10100 g
b10100 i
#63
b10000 5
b10000 j
b10000 t
b100 2
b100 m
b100 4
b100 s
b100 v
b100 8
b100 n
b101 7
b101 o
b100 <
b100 u
b101 >
b101 ]
b11 G
b11000001000000010000000101 *
b11000001000000010000000101 .
b11000001000000010000000101 h
#64
b10100 9
b10100 b
00
0E
1I
1F
0+
#65
b1001 @
b1001 P
b1001 T
b1001 W
b1001 \
b1001 p
b1 6
b1 d
b1 q
b1 w
b100100 :
b100100 `
b100100 k
#66
b1001 K
b1001 Z
b11111111 ?
b11111111 O
b11111111 S
b11111111 V
b11111111 Y
b11111111 [
b11111111 _
b11111111 =
b11111111 ^
b11111111 e
b11111111 3
b11111111 c
b11111111 x
#67
b11111111 K
b11111111 Z
b1001 M
b1001 U
b11111111 L
b11111111 X
#68
b1000 A
b1000 Q
b1000 l
01
b1000 N
b1000 R
1+
#69
b1000 %
b10100 )
b10100 H
b10100 f
#70
b11000 9
b11000 b
b11000 ;
b11000 a
b11000 g
b11000 i
#71
b100 5
b100 j
b100 t
b1 2
b1 m
b1 4
b1 s
b1 v
b110 8
b110 n
b100 7
b100 o
b1 <
b1 u
b100 >
b100 ]
b111 G
b1000 @
b1000 P
b1000 T
b1000 W
b1000 \
b1000 p
b111000000010000011000000100 *
b111000000010000011000000100 .
b111000000010000011000000100 h
#72
b1000 M
b1000 U
1C
0I
0+
#73
b111 A
b111 Q
b111 l
b1 @
b1 P
b1 T
b1 W
b1 \
b1 p
b1000 6
b1000 d
b1000 q
b1000 w
b11100 :
b11100 `
b11100 k
b111 N
b111 R
#74
b1 M
b1 U
b11111000 ?
b11111000 O
b11111000 S
b11111000 V
b11111000 Y
b11111000 [
b11111000 _
b11111000 =
b11111000 ^
b11111000 e
b11111000 3
b11111000 c
b11111000 x
#75
b11111001 K
b11111001 Z
b0 M
b0 U
b11111000 L
b11111000 X
#76
b11111001 A
b11111001 Q
b11111001 l
b11111001 N
b11111001 R
1+
#77
b11000 )
b11000 H
b11000 f
#78
b11100 9
b11100 b
b11100 ;
b11100 a
b11100 g
b11100 i
#79
b11111111111111111111111111110100 5
b11111111111111111111111111110100 j
b11111111111111111111111111110100 t
b101 2
b101 m
b11111111111111111111111111111101 4
b11111111111111111111111111111101 s
b11111111111111111111111111111101 v
b0 8
b0 n
b0 7
b0 o
b11111101 <
b11111101 u
b0 >
b0 ]
b110 G
b110111111010000000000000000 *
b110111111010000000000000000 .
b110111111010000000000000000 h
#80
10
b1000 ?
b1000 O
b1000 S
b1000 V
b1000 Y
b1000 [
b1000 _
b1000 =
b1000 ^
b1000 e
0C
1E
0F
0+
#81
b10000 9
b10000 b
b1001 K
b1001 Z
b1000 L
b1000 X
b0 @
b0 P
b0 T
b0 W
b0 \
b0 p
b0 ?
b0 O
b0 S
b0 V
b0 Y
b0 [
b0 _
b0 =
b0 ^
b0 e
b0 6
b0 d
b0 q
b0 w
b10000 :
b10000 `
b10000 k
#82
b0 3
b0 c
b0 x
b0 K
b0 Z
b0 L
b0 X
#83
b0 A
b0 Q
b0 l
11
b0 N
b0 R
#84
1+
#85
b10000 )
b10000 H
b10000 f
#86
b10100 ;
b10100 a
b10100 g
b10100 i
#87
b10000 5
b10000 j
b10000 t
b100 2
b100 m
b100 4
b100 s
b100 v
b100 8
b100 n
b101 7
b101 o
b100 <
b100 u
b101 >
b101 ]
b11 G
b11000001000000010000000101 *
b11000001000000010000000101 .
b11000001000000010000000101 h
#88
b10100 9
b10100 b
00
0E
1I
1F
0+
#89
b1000 @
b1000 P
b1000 T
b1000 W
b1000 \
b1000 p
b1 6
b1 d
b1 q
b1 w
b100100 :
b100100 `
b100100 k
#90
b1000 K
b1000 Z
b11111111 ?
b11111111 O
b11111111 S
b11111111 V
b11111111 Y
b11111111 [
b11111111 _
b11111111 =
b11111111 ^
b11111111 e
b11111111 3
b11111111 c
b11111111 x
#91
b11111111 K
b11111111 Z
b1000 M
b1000 U
b11111111 L
b11111111 X
#92
b111 A
b111 Q
b111 l
01
b111 N
b111 R
1+
#93
b111 %
b10100 )
b10100 H
b10100 f
#94
b11000 9
b11000 b
b11000 ;
b11000 a
b11000 g
b11000 i
#95
b100 5
b100 j
b100 t
b1 2
b1 m
b1 4
b1 s
b1 v
b110 8
b110 n
b100 7
b100 o
b1 <
b1 u
b100 >
b100 ]
b111 G
b111 @
b111 P
b111 T
b111 W
b111 \
b111 p
b111000000010000011000000100 *
b111000000010000011000000100 .
b111000000010000011000000100 h
#96
b111 M
b111 U
1C
0I
0+
#97
b110 A
b110 Q
b110 l
b1 @
b1 P
b1 T
b1 W
b1 \
b1 p
b111 6
b111 d
b111 q
b111 w
b11100 :
b11100 `
b11100 k
b110 N
b110 R
#98
b1 M
b1 U
b11111001 ?
b11111001 O
b11111001 S
b11111001 V
b11111001 Y
b11111001 [
b11111001 _
b11111001 =
b11111001 ^
b11111001 e
b11111001 3
b11111001 c
b11111001 x
#99
b11111001 K
b11111001 Z
b11111001 L
b11111001 X
#100
b11111010 A
b11111010 Q
b11111010 l
b11111010 N
b11111010 R
1+
#101
b11000 )
b11000 H
b11000 f
#102
b11100 9
b11100 b
b11100 ;
b11100 a
b11100 g
b11100 i
#103
b11111111111111111111111111110100 5
b11111111111111111111111111110100 j
b11111111111111111111111111110100 t
b101 2
b101 m
b11111111111111111111111111111101 4
b11111111111111111111111111111101 s
b11111111111111111111111111111101 v
b0 8
b0 n
b0 7
b0 o
b11111101 <
b11111101 u
b0 >
b0 ]
b110 G
b110111111010000000000000000 *
b110111111010000000000000000 .
b110111111010000000000000000 h
#104
10
b111 ?
b111 O
b111 S
b111 V
b111 Y
b111 [
b111 _
b111 =
b111 ^
b111 e
0C
1E
0F
0+
#105
b10000 9
b10000 b
b111 K
b111 Z
b111 L
b111 X
b0 @
b0 P
b0 T
b0 W
b0 \
b0 p
b0 ?
b0 O
b0 S
b0 V
b0 Y
b0 [
b0 _
b0 =
b0 ^
b0 e
b0 6
b0 d
b0 q
b0 w
b10000 :
b10000 `
b10000 k
#106
b0 3
b0 c
b0 x
b0 K
b0 Z
b0 M
b0 U
b0 L
b0 X
#107
b0 A
b0 Q
b0 l
11
b0 N
b0 R
#108
1+
#109
b10000 )
b10000 H
b10000 f
#110
b10100 ;
b10100 a
b10100 g
b10100 i
#111
b10000 5
b10000 j
b10000 t
b100 2
b100 m
b100 4
b100 s
b100 v
b100 8
b100 n
b101 7
b101 o
b100 <
b100 u
b101 >
b101 ]
b11 G
b11000001000000010000000101 *
b11000001000000010000000101 .
b11000001000000010000000101 h
#112
b10100 9
b10100 b
00
0E
1I
1F
0+
#113
b111 @
b111 P
b111 T
b111 W
b111 \
b111 p
b1 6
b1 d
b1 q
b1 w
b100100 :
b100100 `
b100100 k
#114
b111 K
b111 Z
b11111111 ?
b11111111 O
b11111111 S
b11111111 V
b11111111 Y
b11111111 [
b11111111 _
b11111111 =
b11111111 ^
b11111111 e
b11111111 3
b11111111 c
b11111111 x
#115
b11111111 K
b11111111 Z
b111 M
b111 U
b11111111 L
b11111111 X
#116
b110 A
b110 Q
b110 l
01
b110 N
b110 R
1+
#117
b110 %
b10100 )
b10100 H
b10100 f
#118
b11000 9
b11000 b
b11000 ;
b11000 a
b11000 g
b11000 i
#119
b100 5
b100 j
b100 t
b1 2
b1 m
b1 4
b1 s
b1 v
b110 8
b110 n
b100 7
b100 o
b1 <
b1 u
b100 >
b100 ]
b111 G
b110 @
b110 P
b110 T
b110 W
b110 \
b110 p
b111000000010000011000000100 *
b111000000010000011000000100 .
b111000000010000011000000100 h
#120
b110 M
b110 U
1C
0I
0+
#121
b101 A
b101 Q
b101 l
b1 @
b1 P
b1 T
b1 W
b1 \
b1 p
b110 6
b110 d
b110 q
b110 w
b11100 :
b11100 `
b11100 k
b101 N
b101 R
#122
b1 M
b1 U
b11111010 ?
b11111010 O
b11111010 S
b11111010 V
b11111010 Y
b11111010 [
b11111010 _
b11111010 =
b11111010 ^
b11111010 e
b11111010 3
b11111010 c
b11111010 x
#123
b11111011 K
b11111011 Z
b0 M
b0 U
b11111010 L
b11111010 X
#124
b11111011 A
b11111011 Q
b11111011 l
b11111011 N
b11111011 R
1+
#125
b11000 )
b11000 H
b11000 f
#126
b11100 9
b11100 b
b11100 ;
b11100 a
b11100 g
b11100 i
#127
b11111111111111111111111111110100 5
b11111111111111111111111111110100 j
b11111111111111111111111111110100 t
b101 2
b101 m
b11111111111111111111111111111101 4
b11111111111111111111111111111101 s
b11111111111111111111111111111101 v
b0 8
b0 n
b0 7
b0 o
b11111101 <
b11111101 u
b0 >
b0 ]
b110 G
b110111111010000000000000000 *
b110111111010000000000000000 .
b110111111010000000000000000 h
#128
10
b110 ?
b110 O
b110 S
b110 V
b110 Y
b110 [
b110 _
b110 =
b110 ^
b110 e
0C
1E
0F
0+
#129
b10000 9
b10000 b
b111 K
b111 Z
b110 L
b110 X
b0 @
b0 P
b0 T
b0 W
b0 \
b0 p
b0 ?
b0 O
b0 S
b0 V
b0 Y
b0 [
b0 _
b0 =
b0 ^
b0 e
b0 6
b0 d
b0 q
b0 w
b10000 :
b10000 `
b10000 k
#130
b0 3
b0 c
b0 x
b0 K
b0 Z
b0 L
b0 X
#131
b0 A
b0 Q
b0 l
11
b0 N
b0 R
#132
1+
#133
b10000 )
b10000 H
b10000 f
#134
b10100 ;
b10100 a
b10100 g
b10100 i
#135
b10000 5
b10000 j
b10000 t
b100 2
b100 m
b100 4
b100 s
b100 v
b100 8
b100 n
b101 7
b101 o
b100 <
b100 u
b101 >
b101 ]
b11 G
b11000001000000010000000101 *
b11000001000000010000000101 .
b11000001000000010000000101 h
#136
b10100 9
b10100 b
00
0E
1I
1F
0+
#137
b110 @
b110 P
b110 T
b110 W
b110 \
b110 p
b1 6
b1 d
b1 q
b1 w
b100100 :
b100100 `
b100100 k
#138
b110 K
b110 Z
b11111111 ?
b11111111 O
b11111111 S
b11111111 V
b11111111 Y
b11111111 [
b11111111 _
b11111111 =
b11111111 ^
b11111111 e
b11111111 3
b11111111 c
b11111111 x
#139
b11111111 K
b11111111 Z
b110 M
b110 U
b11111111 L
b11111111 X
#140
b101 A
b101 Q
b101 l
01
b101 N
b101 R
1+
#141
b101 %
b10100 )
b10100 H
b10100 f
#142
b11000 9
b11000 b
b11000 ;
b11000 a
b11000 g
b11000 i
#143
b100 5
b100 j
b100 t
b1 2
b1 m
b1 4
b1 s
b1 v
b110 8
b110 n
b100 7
b100 o
b1 <
b1 u
b100 >
b100 ]
b111 G
b101 @
b101 P
b101 T
b101 W
b101 \
b101 p
b111000000010000011000000100 *
b111000000010000011000000100 .
b111000000010000011000000100 h
#144
b101 M
b101 U
1C
0I
0+
#145
b100 A
b100 Q
b100 l
b1 @
b1 P
b1 T
b1 W
b1 \
b1 p
b101 6
b101 d
b101 q
b101 w
b11100 :
b11100 `
b11100 k
b100 N
b100 R
#146
b1 M
b1 U
b11111011 ?
b11111011 O
b11111011 S
b11111011 V
b11111011 Y
b11111011 [
b11111011 _
b11111011 =
b11111011 ^
b11111011 e
b11111011 3
b11111011 c
b11111011 x
#147
b11111011 K
b11111011 Z
b11111011 L
b11111011 X
#148
b11111100 A
b11111100 Q
b11111100 l
b11111100 N
b11111100 R
1+
#149
b11000 )
b11000 H
b11000 f
#150
b11100 9
b11100 b
b11100 ;
b11100 a
b11100 g
b11100 i
#151
b11111111111111111111111111110100 5
b11111111111111111111111111110100 j
b11111111111111111111111111110100 t
b101 2
b101 m
b11111111111111111111111111111101 4
b11111111111111111111111111111101 s
b11111111111111111111111111111101 v
b0 8
b0 n
b0 7
b0 o
b11111101 <
b11111101 u
b0 >
b0 ]
b110 G
b110111111010000000000000000 *
b110111111010000000000000000 .
b110111111010000000000000000 h
#152
10
b101 ?
b101 O
b101 S
b101 V
b101 Y
b101 [
b101 _
b101 =
b101 ^
b101 e
0C
1E
0F
0+
#153
b10000 9
b10000 b
b101 K
b101 Z
b101 L
b101 X
b0 @
b0 P
b0 T
b0 W
b0 \
b0 p
b0 ?
b0 O
b0 S
b0 V
b0 Y
b0 [
b0 _
b0 =
b0 ^
b0 e
b0 6
b0 d
b0 q
b0 w
b10000 :
b10000 `
b10000 k
#154
b0 3
b0 c
b0 x
b0 K
b0 Z
b0 M
b0 U
b0 L
b0 X
#155
b0 A
b0 Q
b0 l
11
b0 N
b0 R
#156
1+
#157
b10000 )
b10000 H
b10000 f
#158
b10100 ;
b10100 a
b10100 g
b10100 i
#159
b10000 5
b10000 j
b10000 t
b100 2
b100 m
b100 4
b100 s
b100 v
b100 8
b100 n
b101 7
b101 o
b100 <
b100 u
b101 >
b101 ]
b11 G
b11000001000000010000000101 *
b11000001000000010000000101 .
b11000001000000010000000101 h
#160
b10100 9
b10100 b
00
0E
1I
1F
0+
#161
b101 @
b101 P
b101 T
b101 W
b101 \
b101 p
b1 6
b1 d
b1 q
b1 w
b100100 :
b100100 `
b100100 k
#162
b101 K
b101 Z
b11111111 ?
b11111111 O
b11111111 S
b11111111 V
b11111111 Y
b11111111 [
b11111111 _
b11111111 =
b11111111 ^
b11111111 e
b11111111 3
b11111111 c
b11111111 x
#163
b11111111 K
b11111111 Z
b101 M
b101 U
b11111111 L
b11111111 X
#164
b100 A
b100 Q
b100 l
01
b100 N
b100 R
1+
#165
b100 %
b10100 )
b10100 H
b10100 f
#166
b11000 9
b11000 b
b11000 ;
b11000 a
b11000 g
b11000 i
#167
b100 5
b100 j
b100 t
b1 2
b1 m
b1 4
b1 s
b1 v
b110 8
b110 n
b100 7
b100 o
b1 <
b1 u
b100 >
b100 ]
b111 G
b100 @
b100 P
b100 T
b100 W
b100 \
b100 p
b111000000010000011000000100 *
b111000000010000011000000100 .
b111000000010000011000000100 h
#168
b100 M
b100 U
1C
0I
0+
#169
b11 A
b11 Q
b11 l
b1 @
b1 P
b1 T
b1 W
b1 \
b1 p
b100 6
b100 d
b100 q
b100 w
b11100 :
b11100 `
b11100 k
b11 N
b11 R
#170
b1 M
b1 U
b11111100 ?
b11111100 O
b11111100 S
b11111100 V
b11111100 Y
b11111100 [
b11111100 _
b11111100 =
b11111100 ^
b11111100 e
b11111100 3
b11111100 c
b11111100 x
#171
b11111101 K
b11111101 Z
b0 M
b0 U
b11111100 L
b11111100 X
#172
b11111101 A
b11111101 Q
b11111101 l
b11111101 N
b11111101 R
1+
#173
b11000 )
b11000 H
b11000 f
#174
b11100 9
b11100 b
b11100 ;
b11100 a
b11100 g
b11100 i
#175
b11111111111111111111111111110100 5
b11111111111111111111111111110100 j
b11111111111111111111111111110100 t
b101 2
b101 m
b11111111111111111111111111111101 4
b11111111111111111111111111111101 s
b11111111111111111111111111111101 v
b0 8
b0 n
b0 7
b0 o
b11111101 <
b11111101 u
b0 >
b0 ]
b110 G
b110111111010000000000000000 *
b110111111010000000000000000 .
b110111111010000000000000000 h
#176
10
b100 ?
b100 O
b100 S
b100 V
b100 Y
b100 [
b100 _
b100 =
b100 ^
b100 e
0C
1E
0F
0+
#177
b10000 9
b10000 b
b101 K
b101 Z
b100 L
b100 X
b0 @
b0 P
b0 T
b0 W
b0 \
b0 p
b0 ?
b0 O
b0 S
b0 V
b0 Y
b0 [
b0 _
b0 =
b0 ^
b0 e
b0 6
b0 d
b0 q
b0 w
b10000 :
b10000 `
b10000 k
#178
b0 3
b0 c
b0 x
b0 K
b0 Z
b0 L
b0 X
#179
b0 A
b0 Q
b0 l
11
b0 N
b0 R
#180
1+
#181
b10000 )
b10000 H
b10000 f
#182
b10100 ;
b10100 a
b10100 g
b10100 i
#183
b10000 5
b10000 j
b10000 t
b100 2
b100 m
b100 4
b100 s
b100 v
b100 8
b100 n
b101 7
b101 o
b100 <
b100 u
b101 >
b101 ]
b11 G
b11000001000000010000000101 *
b11000001000000010000000101 .
b11000001000000010000000101 h
#184
b10100 9
b10100 b
00
0E
1I
1F
0+
#185
b100 @
b100 P
b100 T
b100 W
b100 \
b100 p
b1 6
b1 d
b1 q
b1 w
b100100 :
b100100 `
b100100 k
#186
b100 K
b100 Z
b11111111 ?
b11111111 O
b11111111 S
b11111111 V
b11111111 Y
b11111111 [
b11111111 _
b11111111 =
b11111111 ^
b11111111 e
b11111111 3
b11111111 c
b11111111 x
#187
b11111111 K
b11111111 Z
b100 M
b100 U
b11111111 L
b11111111 X
#188
b11 A
b11 Q
b11 l
01
b11 N
b11 R
1+
#189
b11 %
b10100 )
b10100 H
b10100 f
#190
b11000 9
b11000 b
b11000 ;
b11000 a
b11000 g
b11000 i
#191
b100 5
b100 j
b100 t
b1 2
b1 m
b1 4
b1 s
b1 v
b110 8
b110 n
b100 7
b100 o
b1 <
b1 u
b100 >
b100 ]
b111 G
b11 @
b11 P
b11 T
b11 W
b11 \
b11 p
b111000000010000011000000100 *
b111000000010000011000000100 .
b111000000010000011000000100 h
#192
b11 M
b11 U
1C
0I
0+
#193
b10 A
b10 Q
b10 l
b1 @
b1 P
b1 T
b1 W
b1 \
b1 p
b11 6
b11 d
b11 q
b11 w
b11100 :
b11100 `
b11100 k
b10 N
b10 R
#194
b1 M
b1 U
b11111101 ?
b11111101 O
b11111101 S
b11111101 V
b11111101 Y
b11111101 [
b11111101 _
b11111101 =
b11111101 ^
b11111101 e
b11111101 3
b11111101 c
b11111101 x
